^H:\[PROGRAMMING]\CSHARP PROGRAMS\EXCELWRITER\EXCELWRITER\FORM1.RESX|H:\[PROGRAMMING]\CSHARP PROGRAMS\EXCELWRITER\EXCELWRITER\PROPERTIES\RESOURCES.RESX
H:\[PROGRAMMING]\CSHARP PROGRAMS\EXCELWRITER\EXCELWRITER\OBJ\X86\RELEASE\EXCELWRITER.FORM1.RESOURCES
H:\[PROGRAMMING]\CSHARP PROGRAMS\EXCELWRITER\EXCELWRITER\OBJ\X86\RELEASE\EXCELWRITER.PROPERTIES.RESOURCES.RESOURCES
^P:\[PROGRAMMING]\CSHARP PROGRAMS\EXCELWRITER\EXCELWRITER\FORM1.RESX|P:\[PROGRAMMING]\CSHARP PROGRAMS\EXCELWRITER\EXCELWRITER\PROPERTIES\RESOURCES.RESX
P:\[PROGRAMMING]\CSHARP PROGRAMS\EXCELWRITER\EXCELWRITER\OBJ\X86\RELEASE\EXCELWRITER.FORM1.RESOURCES
P:\[PROGRAMMING]\CSHARP PROGRAMS\EXCELWRITER\EXCELWRITER\OBJ\X86\RELEASE\EXCELWRITER.PROPERTIES.RESOURCES.RESOURCES
^G:\[PROGRAMMING]\CSHARP PROGRAMS\EXCELWRITER\EXCELWRITER\FORM1.RESX|G:\[PROGRAMMING]\CSHARP PROGRAMS\EXCELWRITER\EXCELWRITER\PROPERTIES\RESOURCES.RESX
G:\[PROGRAMMING]\CSHARP PROGRAMS\EXCELWRITER\EXCELWRITER\OBJ\X86\RELEASE\EXCELWRITER.FORM1.RESOURCES
G:\[PROGRAMMING]\CSHARP PROGRAMS\EXCELWRITER\EXCELWRITER\OBJ\X86\RELEASE\EXCELWRITER.PROPERTIES.RESOURCES.RESOURCES
